[
   "Aerolineas Argentinas",
   "Aeromexico",
   "Air Canada",
   "Air Europa",
   "Air France",
   "AirlineMix",
   "Alitalia",
   "American Airlines",
   "Avianca",
   "British Airways",
   "Copa Airelines",
   "Delta Air Lines",
   "Iberia Airlines",
   "KLM",
   "Lufthansa",
   "United Airlines"
]